{
  "variants": {
    "normal": [
      {
        "model": "routerreborn:router"
      }
    ],
    "inventory": [
      {
        "model": "routerreborn:router"
      }
    ],
    "all": [
      {
        "model": "routerreborn:router"
      }
    ]
  }
}
