{
  "elements": [
    {
      "from": [
        0,
        14,
        0
      ],
      "to": [
        16,
        16,
        16
      ],
      "faces": {
        "down": {
          "uv": [
            16,
            16,
            0,
            0
          ],
          "texture": "#texture"
        },
        "up": {
          "uv": [
            0,
            0,
            16,
            16
          ],
          "texture": "#texture"
        },
        "north": {
          "uv": [
            0,
            0,
            16,
            1
          ],
          "texture": "#texture"
        },
        "south": {
          "uv": [
            0,
            0,
            16,
            1
          ],
          "texture": "#texture"
        },
        "west": {
          "uv": [
            0,
            0,
            16,
            1
          ],
          "texture": "#texture"
        },
        "east": {
          "uv": [
            0,
            0,
            16,
            1
          ],
          "texture": "#texture"
        }
      }
    },
    {
      "from": [
        0,
        0,
        0
      ],
      "to": [
        16,
        2,
        16
      ],
      "faces": {
        "down": {
          "uv": [
            16,
            16,
            0,
            0
          ],
          "texture": "#texture1"
        },
        "up": {
          "uv": [
            0,
            0,
            16,
            16
          ],
          "texture": "#texture1"
        },
        "north": {
          "uv": [
            0,
            15,
            16,
            16
          ],
          "texture": "#texture"
        },
        "south": {
          "uv": [
            0,
            15,
            16,
            16
          ],
          "texture": "#texture"
        },
        "west": {
          "uv": [
            0,
            15,
            16,
            16
          ],
          "texture": "#texture"
        },
        "east": {
          "uv": [
            0,
            15,
            16,
            16
          ],
          "texture": "#texture"
        }
      }
    },
    {
      "from": [
        1,
        2,
        1
      ],
      "to": [
        15,
        4,
        2
      ],
      "faces": {
        "down": {
          "uv": [
            15.5,
            2.5,
            13.5,
            0.5
          ],
          "texture": "#texture"
        },
        "up": {
          "uv": [
            0.5,
            0.5,
            2.5,
            2.5
          ],
          "texture": "#texture"
        },
        "north": {
          "uv": [
            13.5,
            1,
            15.5,
            15
          ],
          "texture": "#texture"
        },
        "south": {
          "uv": [
            0.5,
            1,
            2.5,
            15
          ],
          "texture": "#texture"
        },
        "west": {
          "uv": [
            0.5,
            1,
            2.5,
            15
          ],
          "texture": "#texture"
        },
        "east": {
          "uv": [
            13.5,
            1,
            15.5,
            15
          ],
          "texture": "#texture"
        }
      }
    },
    {
      "from": [
        1,
        2,
        14
      ],
      "to": [
        15,
        4,
        15
      ],
      "faces": {
        "down": {
          "uv": [
            15.5,
            2.5,
            13.5,
            0.5
          ],
          "texture": "#texture"
        },
        "up": {
          "uv": [
            0.5,
            0.5,
            2.5,
            2.5
          ],
          "texture": "#texture"
        },
        "north": {
          "uv": [
            13.5,
            1,
            15.5,
            15
          ],
          "texture": "#texture"
        },
        "south": {
          "uv": [
            0.5,
            1,
            2.5,
            15
          ],
          "texture": "#texture"
        },
        "west": {
          "uv": [
            0.5,
            1,
            2.5,
            15
          ],
          "texture": "#texture"
        },
        "east": {
          "uv": [
            13.5,
            1,
            15.5,
            15
          ],
          "texture": "#texture"
        }
      }
    },
    {
      "from": [
        14,
        2,
        1
      ],
      "to": [
        15,
        4,
        15
      ],
      "faces": {
        "down": {
          "uv": [
            15.5,
            2.5,
            13.5,
            0.5
          ],
          "texture": "#texture"
        },
        "up": {
          "uv": [
            0.5,
            0.5,
            2.5,
            2.5
          ],
          "texture": "#texture"
        },
        "north": {
          "uv": [
            13.5,
            1,
            15.5,
            15
          ],
          "texture": "#texture"
        },
        "south": {
          "uv": [
            0.5,
            1,
            2.5,
            15
          ],
          "texture": "#texture"
        },
        "west": {
          "uv": [
            0.5,
            1,
            2.5,
            15
          ],
          "texture": "#texture"
        },
        "east": {
          "uv": [
            13.5,
            1,
            15.5,
            15
          ],
          "texture": "#texture"
        }
      }
    },
    {
      "from": [
        1,
        2,
        1
      ],
      "to": [
        2,
        4,
        15
      ],
      "faces": {
        "down": {
          "uv": [
            15.5,
            2.5,
            13.5,
            0.5
          ],
          "texture": "#texture"
        },
        "up": {
          "uv": [
            0.5,
            0.5,
            2.5,
            2.5
          ],
          "texture": "#texture"
        },
        "north": {
          "uv": [
            13.5,
            1,
            15.5,
            15
          ],
          "texture": "#texture"
        },
        "south": {
          "uv": [
            0.5,
            1,
            2.5,
            15
          ],
          "texture": "#texture"
        },
        "west": {
          "uv": [
            0.5,
            1,
            2.5,
            15
          ],
          "texture": "#texture"
        },
        "east": {
          "uv": [
            13.5,
            1,
            15.5,
            15
          ],
          "texture": "#texture"
        }
      }
    },
    {
      "from": [
        1,
        12,
        1
      ],
      "to": [
        15,
        14,
        2
      ],
      "faces": {
        "down": {
          "uv": [
            15.5,
            2.5,
            13.5,
            0.5
          ],
          "texture": "#texture"
        },
        "up": {
          "uv": [
            0.5,
            0.5,
            2.5,
            2.5
          ],
          "texture": "#texture"
        },
        "north": {
          "uv": [
            13.5,
            1,
            15.5,
            15
          ],
          "texture": "#texture"
        },
        "south": {
          "uv": [
            0.5,
            1,
            2.5,
            15
          ],
          "texture": "#texture"
        },
        "west": {
          "uv": [
            0.5,
            1,
            2.5,
            15
          ],
          "texture": "#texture"
        },
        "east": {
          "uv": [
            13.5,
            1,
            15.5,
            15
          ],
          "texture": "#texture"
        }
      }
    },
    {
      "from": [
        1,
        12,
        14
      ],
      "to": [
        15,
        14,
        15
      ],
      "faces": {
        "down": {
          "uv": [
            15.5,
            2.5,
            13.5,
            0.5
          ],
          "texture": "#texture"
        },
        "up": {
          "uv": [
            0.5,
            0.5,
            2.5,
            2.5
          ],
          "texture": "#texture"
        },
        "north": {
          "uv": [
            13.5,
            1,
            15.5,
            15
          ],
          "texture": "#texture"
        },
        "south": {
          "uv": [
            0.5,
            1,
            2.5,
            15
          ],
          "texture": "#texture"
        },
        "west": {
          "uv": [
            0.5,
            1,
            2.5,
            15
          ],
          "texture": "#texture"
        },
        "east": {
          "uv": [
            13.5,
            1,
            15.5,
            15
          ],
          "texture": "#texture"
        }
      }
    },
    {
      "from": [
        14,
        12,
        1
      ],
      "to": [
        15,
        14,
        15
      ],
      "faces": {
        "down": {
          "uv": [
            15.5,
            2.5,
            13.5,
            0.5
          ],
          "texture": "#texture"
        },
        "up": {
          "uv": [
            0.5,
            0.5,
            2.5,
            2.5
          ],
          "texture": "#texture"
        },
        "north": {
          "uv": [
            13.5,
            1,
            15.5,
            15
          ],
          "texture": "#texture"
        },
        "south": {
          "uv": [
            0.5,
            1,
            2.5,
            15
          ],
          "texture": "#texture"
        },
        "west": {
          "uv": [
            0.5,
            1,
            2.5,
            15
          ],
          "texture": "#texture"
        },
        "east": {
          "uv": [
            13.5,
            1,
            15.5,
            15
          ],
          "texture": "#texture"
        }
      }
    },
    {
      "from": [
        1,
        12,
        1
      ],
      "to": [
        2,
        14,
        15
      ],
      "faces": {
        "down": {
          "uv": [
            15.5,
            2.5,
            13.5,
            0.5
          ],
          "texture": "#texture"
        },
        "up": {
          "uv": [
            0.5,
            0.5,
            2.5,
            2.5
          ],
          "texture": "#texture"
        },
        "north": {
          "uv": [
            13.5,
            1,
            15.5,
            15
          ],
          "texture": "#texture"
        },
        "south": {
          "uv": [
            0.5,
            1,
            2.5,
            15
          ],
          "texture": "#texture"
        },
        "west": {
          "uv": [
            0.5,
            1,
            2.5,
            15
          ],
          "texture": "#texture"
        },
        "east": {
          "uv": [
            13.5,
            1,
            15.5,
            15
          ],
          "texture": "#texture"
        }
      }
    },
    {
      "from": [
        0.5,
        1,
        0.5
      ],
      "to": [
        2.5,
        15,
        2.5
      ],
      "faces": {
        "down": {
          "uv": [
            15.5,
            2.5,
            13.5,
            0.5
          ],
          "texture": "#texture"
        },
        "up": {
          "uv": [
            0.5,
            0.5,
            2.5,
            2.5
          ],
          "texture": "#texture"
        },
        "north": {
          "uv": [
            13.5,
            1,
            15.5,
            15
          ],
          "texture": "#texture"
        },
        "south": {
          "uv": [
            0.5,
            1,
            2.5,
            15
          ],
          "texture": "#texture"
        },
        "west": {
          "uv": [
            0.5,
            1,
            2.5,
            15
          ],
          "texture": "#texture"
        },
        "east": {
          "uv": [
            13.5,
            1,
            15.5,
            15
          ],
          "texture": "#texture"
        }
      }
    },
    {
      "from": [
        0.5,
        1,
        13.5
      ],
      "to": [
        2.5,
        15,
        15.5
      ],
      "faces": {
        "down": {
          "uv": [
            15.5,
            15.5,
            13.5,
            13.5
          ],
          "texture": "#texture"
        },
        "up": {
          "uv": [
            0.5,
            13.5,
            2.5,
            15.5
          ],
          "texture": "#texture"
        },
        "north": {
          "uv": [
            13.5,
            1,
            15.5,
            15
          ],
          "texture": "#texture"
        },
        "south": {
          "uv": [
            0.5,
            1,
            2.5,
            15
          ],
          "texture": "#texture"
        },
        "west": {
          "uv": [
            13.5,
            1,
            15.5,
            15
          ],
          "texture": "#texture"
        },
        "east": {
          "uv": [
            0.5,
            1,
            2.5,
            15
          ],
          "texture": "#texture"
        }
      }
    },
    {
      "from": [
        13.5,
        1,
        0.5
      ],
      "to": [
        15.5,
        15,
        2.5
      ],
      "faces": {
        "down": {
          "uv": [
            2.5,
            2.5,
            0.5,
            0.5
          ],
          "texture": "#texture"
        },
        "up": {
          "uv": [
            13.5,
            0.5,
            15.5,
            2.5
          ],
          "texture": "#texture"
        },
        "north": {
          "uv": [
            0.5,
            1,
            2.5,
            15
          ],
          "texture": "#texture"
        },
        "south": {
          "uv": [
            13.5,
            1,
            15.5,
            15
          ],
          "texture": "#texture"
        },
        "west": {
          "uv": [
            0.5,
            1,
            2.5,
            15
          ],
          "texture": "#texture"
        },
        "east": {
          "uv": [
            13.5,
            1,
            15.5,
            15
          ],
          "texture": "#texture"
        }
      }
    },
    {
      "from": [
        13.5,
        1,
        13.5
      ],
      "to": [
        15.5,
        15,
        15.5
      ],
      "faces": {
        "down": {
          "uv": [
            2.5,
            15.5,
            0.5,
            13.5
          ],
          "texture": "#texture"
        },
        "up": {
          "uv": [
            13.5,
            13.5,
            15.5,
            15.5
          ],
          "texture": "#texture"
        },
        "north": {
          "uv": [
            0.5,
            1,
            2.5,
            15
          ],
          "texture": "#texture"
        },
        "south": {
          "uv": [
            13.5,
            1,
            15.5,
            15
          ],
          "texture": "#texture"
        },
        "west": {
          "uv": [
            13.5,
            1,
            15.5,
            15
          ],
          "texture": "#texture"
        },
        "east": {
          "uv": [
            0.5,
            1,
            2.5,
            15
          ],
          "texture": "#texture"
        }
      }
    }
  ],
  "textures": {
    "texture": "routerreborn:blocks/router/bottom",
    "particle": "routerreborn:blocks/router/bottom",
    "texture1": "routerreborn:blocks/router/routercolor"
  },
  "display": {
    "gui": {
      "rotation": [
        30,
        225,
        0
      ],
      "translation": [
        0,
        0,
        0
      ],
      "scale": [
        0.625,
        0.625,
        0.625
      ]
    },
    "ground": {
      "rotation": [
        0,
        0,
        0
      ],
      "translation": [
        0,
        3,
        0
      ],
      "scale": [
        0.25,
        0.25,
        0.25
      ]
    },
    "fixed": {
      "rotation": [
        0,
        0,
        0
      ],
      "translation": [
        0,
        0,
        0
      ],
      "scale": [
        0.5,
        0.5,
        0.5
      ]
    },
    "thirdperson_righthand": {
      "rotation": [
        75,
        45,
        0
      ],
      "translation": [
        0,
        2.5,
        0
      ],
      "scale": [
        0.375,
        0.375,
        0.375
      ]
    },
    "firstperson_righthand": {
      "rotation": [
        0,
        45,
        0
      ],
      "translation": [
        0,
        0,
        0
      ],
      "scale": [
        0.40,
        0.40,
        0.40
      ]
    },
    "firstperson_lefthand": {
      "rotation": [
        0,
        225,
        0
      ],
      "translation": [
        0,
        0,
        0
      ],
      "scale": [
        0.40,
        0.40,
        0.40
      ]
    }
  }
}